{
    "1": {"length": 111, "diameter": 26.1},
    "2": {"length": 159, "diameter": 26.1},
    "3": {"length": 106, "diameter": 30.6},
    "4": {"length": 124, "diameter": 30.6},
    "5": {"length": 108, "diameter": 35.7},
    "6": {"length": 127, "diameter": 35.7},
    "7": {"length": 108, "diameter": 40.8},
    "8": {"length": 151, "diameter": 40.8},
    "9": {"length": 103, "diameter": 51.8},
    "10": {"length": 126, "diameter": 51.8},
    "11": {"length": 107, "diameter": 61.2},
    "12": {"length": 153, "diameter": 61.2},
    "13": {"length": 104, "diameter": 70.8},
    "14": {"length": 134, "diameter": 70.8}
}
